{
    "prepare_queue": {
        "installed": [],
        "uninstalled": []
    },
    "config_munge": {
        "files": {
            "res/xml/config.xml": {
                "parents": {
                    "/*": [
                        {
                            "xml": "<feature name=\"OneSignalPush\"><param name=\"android-package\" value=\"com.plugin.gcm.OneSignalPush\" /></feature>",
                            "count": 1
                        },
                        {
                            "xml": "<feature name=\"NetworkStatus\"><param name=\"android-package\" value=\"org.apache.cordova.networkinformation.NetworkManager\" /></feature>",
                            "count": 1
                        },
                        {
                            "xml": "<feature name=\"Notification\"><param name=\"android-package\" value=\"org.apache.cordova.dialogs.Notification\" /></feature>",
                            "count": 1
                        },
                        {
                            "xml": "<feature name=\"Whitelist\"><param name=\"android-package\" value=\"org.apache.cordova.whitelist.WhitelistPlugin\" /><param name=\"onload\" value=\"true\" /></feature>",
                            "count": 1
                        },
                        {
                            "xml": "<feature name=\"FabricPlugin\"><param name=\"android-package\" value=\"com.sarriaroman.fabric.FabricPlugin\" /><param name=\"onload\" value=\"true\" /></feature>",
                            "count": 1
                        },
                        {
                            "xml": "<feature name=\"BackbuttonPlugin\"><param name=\"android-package\" value=\"com.badrit.Backbutton.BackbuttonPlugin\" /></feature>",
                            "count": 1
                        },
                        {
                            "xml": "<feature name=\"IsDebug\"><param name=\"android-package\" value=\"me.mattlewis.isdebug.IsDebug\" /></feature>",
                            "count": 1
                        }
                    ]
                }
            },
            "config.xml": {
                "parents": {
                    "/*": []
                }
            },
            "AndroidManifest.xml": {
                "parents": {
                    "/manifest": [
                        {
                            "xml": "<uses-permission android:name=\"com.amazon.device.messaging.permission.RECEIVE\" />",
                            "count": 1
                        },
                        {
                            "xml": "<permission android:name=\"com.agombi.business.permission.RECEIVE_ADM_MESSAGE\" android:protectionLevel=\"signature\" />",
                            "count": 1
                        },
                        {
                            "xml": "<uses-permission android:name=\"com.agombi.business.permission.RECEIVE_ADM_MESSAGE\" />",
                            "count": 1
                        }
                    ],
                    "/*": [
                        {
                            "xml": "<uses-permission android:name=\"android.permission.ACCESS_NETWORK_STATE\" />",
                            "count": 1
                        },
                        {
                            "xml": "<uses-permission android:name=\"android.permission.INTERNET\" />",
                            "count": 1
                        }
                    ],
                    "/manifest/application": [
                        {
                            "xml": "<amazon:enable-feature android:name=\"com.amazon.device.messaging\" android:required=\"false\" xmlns:amazon=\"http://schemas.amazon.com/apk/res/android\" />",
                            "count": 1
                        },
                        {
                            "xml": "<service android:exported=\"false\" android:name=\"com.onesignal.ADMMessageHandler\" />",
                            "count": 1
                        },
                        {
                            "xml": "<receiver android:name=\"com.onesignal.ADMMessageHandler$Receiver\" android:permission=\"com.amazon.device.messaging.permission.SEND\"><intent-filter><action android:name=\"com.amazon.device.messaging.intent.REGISTRATION\" /><action android:name=\"com.amazon.device.messaging.intent.RECEIVE\" /><category android:name=\"com.agombi.business\" /></intent-filter></receiver>",
                            "count": 1
                        }
                    ],
                    "application": [
                        {
                            "xml": "<meta-data android:name=\"io.fabric.ApiKey\" android:value=\"4064473e0b88dae62d7fe636f5e83039810d2cc6\" />",
                            "count": 1
                        }
                    ]
                }
            }
        }
    },
    "installed_plugins": {
        "onesignal-cordova-plugin": {
            "PACKAGE_NAME": "com.agombi.business"
        },
        "cordova-plugin-network-information": {
            "PACKAGE_NAME": "com.agombi.business"
        },
        "cordova-plugin-dialogs": {
            "PACKAGE_NAME": "com.agombi.business"
        },
        "cordova-plugin-whitelist": {
            "PACKAGE_NAME": "com.agombi.business"
        },
        "cordova-fabric-plugin": {
            "FABRIC_API_KEY": "4064473e0b88dae62d7fe636f5e83039810d2cc6",
            "FABRIC_API_SECRET": "5a39123b61959208454de5f5e83524b53409ba40b48656bacac9d3420819c39b",
            "PACKAGE_NAME": "com.agombi.business"
        },
        "cordova-plugin-backbutton": {
            "PACKAGE_NAME": "com.agombi.business"
        },
        "cordova-plugin-is-debug": {
            "PACKAGE_NAME": "com.agombi.business"
        }
    },
    "dependent_plugins": {},
    "modules": [
        {
            "id": "onesignal-cordova-plugin.OneSignal",
            "file": "plugins/onesignal-cordova-plugin/www/OneSignal.js",
            "pluginId": "onesignal-cordova-plugin",
            "clobbers": [
                "OneSignal"
            ]
        },
        {
            "id": "cordova-plugin-network-information.network",
            "file": "plugins/cordova-plugin-network-information/www/network.js",
            "pluginId": "cordova-plugin-network-information",
            "clobbers": [
                "navigator.connection",
                "navigator.network.connection"
            ]
        },
        {
            "id": "cordova-plugin-network-information.Connection",
            "file": "plugins/cordova-plugin-network-information/www/Connection.js",
            "pluginId": "cordova-plugin-network-information",
            "clobbers": [
                "Connection"
            ]
        },
        {
            "id": "cordova-plugin-dialogs.notification",
            "file": "plugins/cordova-plugin-dialogs/www/notification.js",
            "pluginId": "cordova-plugin-dialogs",
            "merges": [
                "navigator.notification"
            ]
        },
        {
            "id": "cordova-plugin-dialogs.notification_android",
            "file": "plugins/cordova-plugin-dialogs/www/android/notification.js",
            "pluginId": "cordova-plugin-dialogs",
            "merges": [
                "navigator.notification"
            ]
        },
        {
            "id": "cordova-fabric-plugin.FabricPlugin",
            "file": "plugins/cordova-fabric-plugin/www/FabricPlugin.js",
            "pluginId": "cordova-fabric-plugin",
            "clobbers": [
                "window.fabric.core"
            ]
        },
        {
            "id": "cordova-fabric-plugin.FabricAnswersPlugin",
            "file": "plugins/cordova-fabric-plugin/www/FabricPlugin.Answers.js",
            "pluginId": "cordova-fabric-plugin",
            "clobbers": [
                "window.fabric.Answers"
            ]
        },
        {
            "id": "cordova-fabric-plugin.FabricCrashlyticsPlugin",
            "file": "plugins/cordova-fabric-plugin/www/FabricPlugin.Crashlytics.js",
            "pluginId": "cordova-fabric-plugin",
            "clobbers": [
                "window.fabric.Crashlytics"
            ]
        },
        {
            "id": "cordova-plugin-backbutton.Backbutton",
            "file": "plugins/cordova-plugin-backbutton/www/Backbutton.js",
            "pluginId": "cordova-plugin-backbutton",
            "clobbers": [
                "navigator.Backbutton"
            ]
        },
        {
            "id": "cordova-plugin-is-debug.IsDebug",
            "file": "plugins/cordova-plugin-is-debug/www/isDebug.js",
            "pluginId": "cordova-plugin-is-debug",
            "clobbers": [
                "cordova.plugins.IsDebug"
            ]
        }
    ],
    "plugin_metadata": {
        "onesignal-cordova-plugin": "2.0.10",
        "cordova-plugin-network-information": "1.3.1",
        "cordova-plugin-dialogs": "1.3.1",
        "cordova-plugin-whitelist": "1.3.2-dev",
        "cordova-fabric-plugin": "1.1.3",
        "cordova-plugin-backbutton": "0.3.0",
        "cordova-plugin-is-debug": "1.0.0"
    }
}