{
    "prepare_queue": {
        "installed": [],
        "uninstalled": []
    },
    "config_munge": {
        "files": {}
    },
    "installed_plugins": {
        "onesignal-cordova-plugin": {
            "PACKAGE_NAME": "com.agombi.business"
        },
        "cordova-plugin-network-information": {
            "PACKAGE_NAME": "com.agombi.business"
        },
        "cordova-plugin-dialogs": {
            "PACKAGE_NAME": "com.agombi.business"
        },
        "cordova-plugin-whitelist": {
            "PACKAGE_NAME": "com.agombi.business"
        },
        "cordova-fabric-plugin": {
            "FABRIC_API_KEY": "4064473e0b88dae62d7fe636f5e83039810d2cc6",
            "FABRIC_API_SECRET": "5a39123b61959208454de5f5e83524b53409ba40b48656bacac9d3420819c39b",
            "PACKAGE_NAME": "com.agombi.business"
        },
        "cordova-plugin-backbutton": {
            "PACKAGE_NAME": "com.agombi.business"
        },
        "cordova-plugin-is-debug": {
            "PACKAGE_NAME": "com.agombi.business"
        }
    },
    "dependent_plugins": {}
}